<?xml version="1.0" encoding="UTF-8" standalone="no"?>
<svg
   xmlns:dc="http://purl.org/dc/elements/1.1/"
   xmlns:cc="http://creativecommons.org/ns#"
   xmlns:rdf="http://www.w3.org/1999/02/22-rdf-syntax-ns#"
   xmlns:svg="http://www.w3.org/2000/svg"
   xmlns="http://www.w3.org/2000/svg"
   xmlns:sodipodi="http://sodipodi.sourceforge.net/DTD/sodipodi-0.dtd"
   xmlns:inkscape="http://www.inkscape.org/namespaces/inkscape"
   id="Capa_1"
   data-name="Capa 1"
   viewBox="0 0 1389.9854 1640.54"
   version="1.1"
   sodipodi:docname="LOGOS FORMATOS PRODAT (GDPR) BLANCO-05 (1).svg"
   width="1389.9854"
   height="1640.54"
   inkscape:version="0.92.1 r15371">
  <metadata
     id="metadata13">
    <rdf:RDF>
      <cc:Work
         rdf:about="">
        <dc:format>image/svg+xml</dc:format>
        <dc:type
           rdf:resource="http://purl.org/dc/dcmitype/StillImage" />
        <dc:title>LOGOS FORMATOS PRODAT (GDPR) BLANCO</dc:title>
      </cc:Work>
    </rdf:RDF>
  </metadata>
  <sodipodi:namedview
     pagecolor="#ffffff"
     bordercolor="#666666"
     borderopacity="1"
     objecttolerance="10"
     gridtolerance="10"
     guidetolerance="10"
     inkscape:pageopacity="0"
     inkscape:pageshadow="2"
     inkscape:window-width="640"
     inkscape:window-height="480"
     id="namedview11"
     showgrid="false"
     inkscape:pagecheckerboard="true"
     fit-margin-top="0"
     fit-margin-left="0"
     fit-margin-right="0"
     fit-margin-bottom="0"
     inkscape:zoom="0.0944"
     inkscape:cx="694.99146"
     inkscape:cy="820.23"
     inkscape:window-x="400"
     inkscape:window-y="153"
     inkscape:window-maximized="0"
     inkscape:current-layer="Capa_1" />
  <defs
     id="defs4">
    <style
       id="style2">.cls-1{fill:#fff;}</style>
  </defs>
  <title
     id="title6">LOGOS FORMATOS PRODAT (GDPR) BLANCO</title>
  <path
     class="cls-1"
     d="m 1387.4115,347.73 -2.42,-28.49 -28.56,-1 a 960,960 0 0 1 -146.76,-16.41 C 889.14146,240.49 722.13146,34.31 720.27146,32 l -25.23,-32 -25.31,31.92 c -2.15,2.71 -220,271.59 -636.230003,286.28 l -28.5600003,1 -2.37,28.49 c -0.81,9.74 -18.9999997,241.8 54.3800003,517.44 97.900003,367.55 314.070003,633.73 625.140003,769.77 l 12.9,5.64 12.9,-5.64 c 165.25,-72.27 303.73004,-181.27 411.91004,-322.69 q 85.91,-112.3 145.84,-251.22 6.63,-15.4 12.92,-31.11 a 1437.46,1437.46 0 0 0 54.43,-164.71 1695.44,1695.44 0 0 0 45.31,-240.19 q 2.51,-21.65 4.38,-42.09 1.87,-20.44 3.19,-39.5 c 7.96,-114.36 2,-190.18 1.54,-195.66 z m -968.40004,698 a 44.235,44.235 0 0 1 -88.47,0 V 546.85 a 44.235,44.235 0 0 1 88.47,0 z m 160.25,96.1 a 44.235,44.235 0 0 1 -88.47,0 V 546.55 a 44.235,44.235 0 0 1 88.47,0 z m 159,115.7 a 44.235,44.235 0 1 1 -88.47,0 v -711 a 44.235,44.235 0 1 1 88.47,0 z m 159.36,-115.12 a 44.235,44.235 0 0 1 -88.47,0 V 547.13 a 44.235,44.235 0 0 1 88.47,0 z m 161.81004,-96.29 a 44.235,44.235 0 0 1 -88.47004,0 V 547.25 a 44.235,44.235 0 0 1 88.47004,0 z"
     id="path8"
     inkscape:connector-curvature="0"
     style="fill:#ffffff" />
</svg>
